GO:0043900 GO:0050789
GO:0019915 GO:0051235
GO:0015672 GO:0006812
GO:0060249 GO:0042592
GO:0050795 GO:0048583
GO:0050793 GO:0050789
GO:0006955 GO:0002376 GO:0050896
GO:0050794 GO:0050789
GO:0071495 GO:0009719
GO:0071496 GO:0009605
GO:0071375 GO:0032870 GO:0043434 GO:1901653
GO:0050790 GO:0019222 GO:0065009
GO:2000113 GO:0010558 GO:0031327 GO:2000112
GO:2000112 GO:0010556 GO:0031326
GO:0051649 GO:0051234
GO:0051403 GO:0000165 GO:0031098
GO:0002252 GO:0002376
GO:0006974 GO:0033554
GO:0002376 GO:0008150
GO:0006725 GO:0044237
GO:0006726 GO:0042441 GO:0046148
GO:0023057 GO:0023051 GO:0048519
GO:0023051 GO:0050789
GO:0002009 GO:0048729
GO:0006727 GO:0006726 GO:0008055 GO:0018130 GO:0019438 GO:0046152 GO:1901362
GO:0023052 GO:0008150
GO:1901360 GO:0071704
GO:1901362 GO:1901360 GO:1901576
GO:0051301 GO:0044763
GO:0000165 GO:0023014 GO:0035556
GO:0006811 GO:0044765
GO:0006812 GO:0006811
GO:0006818 GO:0044765
GO:2000377 GO:0031323
GO:0043933 GO:0016043
GO:0060255 GO:0019222
GO:0060250 GO:0060249
GO:0035010 GO:0002252
GO:1901135 GO:0071704
GO:1901137 GO:1901135 GO:1901576
GO:0048149 GO:0030534
GO:0006952 GO:0006950
GO:0006950 GO:0050896
GO:0072593 GO:0044237
GO:0005975 GO:0044238 GO:0071704
GO:0080090 GO:0019222
GO:0035006 GO:0006582 GO:0045087
GO:2000026 GO:0050793 GO:0051239
GO:0016568 GO:0006325
GO:0016569 GO:0016568
GO:0060560 GO:0048589
GO:0006520 GO:0019752 GO:0044238 GO:1901564
GO:0045168 GO:0007267
GO:0036293 GO:0070482
GO:0002164 GO:0009791
GO:0006886 GO:0015031 GO:0046907
GO:0006644 GO:0006796 GO:0019637 GO:0044255
GO:0007612 GO:0007611
GO:0006887 GO:0016192 GO:0032940
GO:0007613 GO:0007611
GO:0007610 GO:0008150
GO:0007611 GO:0044708 GO:0050890
GO:0003006 GO:0022414 GO:0032502
GO:0007606 GO:0007600
GO:0070482 GO:0009628
GO:0003008 GO:0044707
GO:0051960 GO:2000026
GO:0044087 GO:0050789
GO:0006518 GO:0043603 GO:1901564
GO:0016570 GO:0006464 GO:0016569 GO:0044710 GO:1902589
GO:0048563 GO:0009886 GO:0009887
GO:0051969 GO:0010646 GO:0023051 GO:0031644
GO:0016331 GO:0002009 GO:0048598
GO:0051726 GO:0050794
GO:0050877 GO:0003008
GO:0051963 GO:0044087 GO:0050807 GO:0051960
GO:2001141 GO:0010556 GO:0031326 GO:0051252
GO:0019827 GO:0044707 GO:0044767 GO:0045596 GO:0098727
GO:0046148 GO:0042440 GO:0044711
GO:0006650 GO:0006644 GO:0046486
GO:0006897 GO:0016192
GO:0007623 GO:0048511
GO:0007622 GO:0007610 GO:0048511
GO:0046152 GO:0006725 GO:0042441 GO:0044763 GO:0046158 GO:0046483 GO:1901360
GO:0045184 GO:0051234
GO:0007616 GO:0007613
GO:0044093 GO:0065009
GO:0007617 GO:0044705
GO:0007614 GO:0007613
GO:0046390 GO:0019693 GO:0090407 GO:1901137
GO:0016202 GO:0048634 GO:1901861
GO:0050767 GO:0051960 GO:0060284
GO:0060341 GO:0032879 GO:0050794
GO:0019935 GO:0019932
GO:1901564 GO:0006807 GO:0071704
GO:0046158 GO:0019748 GO:0043474
GO:1901566 GO:1901564 GO:1901576
GO:0048584 GO:0048518 GO:0048583
GO:0050773 GO:0010975
GO:0048583 GO:0050789
GO:0006979 GO:0006950
GO:0050890 GO:0050877
GO:0048588 GO:0016049 GO:0048589
GO:0050770 GO:0010769 GO:0010975
GO:0048585 GO:0048519 GO:0048583
GO:0016310 GO:0006796
GO:0050896 GO:0008150
GO:0018958 GO:0006725 GO:1901360 GO:1901615
GO:1901576 GO:0009058 GO:0071704
GO:1901575 GO:0009056 GO:0071704
GO:1901699 GO:0070887 GO:1901698
GO:0048589 GO:0040007 GO:0044767
GO:0048468 GO:0048856 GO:0048869
GO:1901698 GO:0042221
GO:0006996 GO:0016043
GO:0003002 GO:0007389
GO:0007600 GO:0050877
GO:0006753 GO:0006796 GO:0019637 GO:0055086
GO:0048232 GO:0007276
GO:0048477 GO:0007281 GO:0007292
GO:0048598 GO:0009653 GO:0044767
GO:0030718 GO:0019827
GO:0006749 GO:0006518 GO:0006575 GO:0006790
GO:0045087 GO:0006952 GO:0006955
GO:0006629 GO:0044238 GO:0044710 GO:0071704
GO:0050789 GO:0065007
GO:0019933 GO:0019935
GO:0019932 GO:0035556
GO:0045926 GO:0040008 GO:0048519
GO:0045927 GO:0040008 GO:0048518
GO:0019637 GO:0006793 GO:0071704
GO:0015031 GO:0008104 GO:0045184 GO:0071702
GO:0007411 GO:0097485
GO:0044711 GO:0009058 GO:0044710
GO:0006325 GO:0043933
GO:0044710 GO:0008152 GO:0044699
GO:0043623 GO:0006461 GO:0034622
GO:0097485 GO:0006928
GO:0007528 GO:0050808
GO:0051246 GO:0060255 GO:0080090
GO:0051247 GO:0010604 GO:0051246
GO:0030307 GO:0001558 GO:0045927 GO:0048522
GO:0051124 GO:0007416 GO:0007528 GO:0048589
GO:0030308 GO:0001558 GO:0045926 GO:0048523
GO:0051240 GO:0048518 GO:0051239
GO:0007409 GO:0048812
GO:0051241 GO:0048519 GO:0051239
GO:0061061 GO:0044767 GO:0048856
GO:0051129 GO:0048523 GO:0051128
GO:0051248 GO:0010605 GO:0051246
GO:0051128 GO:0050794
GO:0019748 GO:0044710
GO:0045937 GO:0010562 GO:0019220
GO:0045814 GO:0010629 GO:0040029
GO:0040003 GO:0042335
GO:0045935 GO:0019219 GO:0031325 GO:0051173
GO:0046903 GO:0044765
GO:0046907 GO:0006810 GO:0051649
GO:0006575 GO:0044237 GO:1901564
GO:0014070 GO:0010033
GO:0042542 GO:0000302 GO:0010035
GO:0009725 GO:0009719 GO:0010033
GO:0006457 GO:0044267
GO:0045934 GO:0019219 GO:0031324 GO:0051172
GO:0040008 GO:0050789
GO:0009966 GO:0010646 GO:0023051 GO:0048583
GO:0040007 GO:0008150
GO:0007423 GO:0044767 GO:0048513
GO:0030536 GO:0007631 GO:0030537
GO:0007416 GO:0022607 GO:0050808
GO:0030537 GO:0044707 GO:0044708
GO:0051253 GO:0010605 GO:0045934 GO:0051252
GO:1990138 GO:0048588 GO:0060560
GO:0051254 GO:0010604 GO:0045935 GO:0051252
GO:0051252 GO:0019219 GO:0060255
GO:0016482 GO:0046907
GO:0009719 GO:0050896
GO:0016241 GO:0010506 GO:0010646 GO:0032107 GO:0080135
GO:0010941 GO:0050794
GO:0019752 GO:0043436
GO:0030534 GO:0044707 GO:0044708
GO:0040014 GO:0048638 GO:0051239
GO:0040011 GO:0008150
GO:0022904 GO:0022900
GO:0007631 GO:0007610
GO:0022900 GO:0006091 GO:0044763 GO:0055114
GO:0045944 GO:0006357 GO:0045893
GO:0007635 GO:0044708
GO:0040018 GO:0040014 GO:0048639 GO:0051240
GO:0051147 GO:0045595
GO:0007626 GO:0007610
GO:0016477 GO:0048870
GO:0016236 GO:0006914 GO:0009267 GO:0044712
GO:0032940 GO:0044763 GO:0046903 GO:0051649
GO:0016458 GO:0010629 GO:0044763
GO:0019725 GO:0042592 GO:0044763
GO:0006790 GO:0044237
GO:0042440 GO:0044710
GO:0042441 GO:0043324
GO:0006793 GO:0044237
GO:0043412 GO:0043170
GO:0040029 GO:0010468
GO:0042325 GO:0019220
GO:0006796 GO:0006793
GO:0043414 GO:0032259 GO:0043412 GO:0044260
GO:0007517 GO:0048513 GO:0061061
GO:0051276 GO:0006996
GO:0051153 GO:0051147
GO:0022604 GO:0022603 GO:0051128
GO:0009991 GO:0009605
GO:0060284 GO:0045595
GO:0022607 GO:0016043
GO:0022603 GO:0050793
GO:0008306 GO:0007612
GO:0009628 GO:0050896
GO:0016050 GO:0006996
GO:0048167 GO:0050803 GO:0050804
GO:0017145 GO:0051301
GO:0010975 GO:0031344 GO:0045664
GO:0007220 GO:0044267
GO:0009886 GO:0009653
GO:0007584 GO:0031667 GO:0042221
GO:0042981 GO:0043067
GO:0006259 GO:0044260 GO:0090304
GO:0042742 GO:0009617 GO:0098542
GO:0006139 GO:0006725 GO:0034641 GO:0044238 GO:0046483 GO:1901360
GO:0009889 GO:0019222
GO:0007346 GO:0051726
GO:0009888 GO:0048856
GO:0009887 GO:0009653 GO:0044767
GO:0010629 GO:0010468 GO:0010605
GO:0031668 GO:0007154 GO:0009991 GO:0051716 GO:0071496
GO:0031669 GO:0031667 GO:0031668
GO:0032879 GO:0050789
GO:0010628 GO:0010468 GO:0010604
GO:0010506 GO:0031329
GO:0010627 GO:0009966
GO:0016043 GO:0009987 GO:0071840
GO:0032870 GO:0009725 GO:0071310 GO:0071495
GO:0031667 GO:0009991
GO:0019438 GO:0006725 GO:0044249
GO:0016049 GO:0040007 GO:0044763
GO:0010741 GO:0009968 GO:1902531
GO:0051336 GO:0050790
GO:0043603 GO:0034641
GO:0019538 GO:0043170 GO:0044238
GO:1900076 GO:0048583 GO:0050794
GO:0006461 GO:0065003 GO:0071822
GO:0006582 GO:0018958 GO:0019748 GO:0042440 GO:0044763
GO:0032990 GO:0032989
GO:1900077 GO:0048523 GO:0048585 GO:1900076
GO:0006464 GO:0036211 GO:0044267
GO:0009611 GO:0006950
GO:0006342 GO:0016458 GO:0045814 GO:0045892
GO:0007552 GO:0009653 GO:0044767
GO:0006468 GO:0006464 GO:0016310
GO:0032869 GO:0032868 GO:0071375
GO:0051345 GO:0043085 GO:0051336
GO:0009607 GO:0050896
GO:0048066 GO:0043473 GO:0044767
GO:0032989 GO:0009653 GO:0016043 GO:0048869
GO:0009968 GO:0009966 GO:0010648 GO:0023057 GO:0048585
GO:0009605 GO:0050896
GO:0032868 GO:0043434
GO:0048069 GO:0048066
GO:0097305 GO:0010033 GO:1901700
GO:0032502 GO:0008150
GO:0032501 GO:0008150
GO:0044704 GO:0019098 GO:0044702 GO:0044708
GO:1901293 GO:0006753 GO:0034654 GO:0044711 GO:0090407
GO:0044706 GO:0032501 GO:0051704
GO:0044708 GO:0007610 GO:0044699
GO:0044707 GO:0032501 GO:0044699
GO:0006355 GO:0010468 GO:1903506 GO:2000112
GO:0006476 GO:0035601
GO:0009620 GO:0051707
GO:0007568 GO:0044767
GO:0044700 GO:0023052 GO:0044699
GO:0044702 GO:0022414 GO:0044699
GO:0009987 GO:0008150
GO:0006357 GO:0006355
GO:0010608 GO:0010468
GO:0009617 GO:0051707
GO:0051234 GO:0051179
GO:0010604 GO:0009893 GO:0060255
GO:0010605 GO:0009892 GO:0060255
GO:0060180 GO:0033057
GO:0016265 GO:0044699
GO:0031644 GO:0044057
GO:0051239 GO:0050789
GO:0048072 GO:0048069
GO:0031401 GO:0031399 GO:0032270
GO:0006163 GO:0009117 GO:0072521
GO:0007010 GO:0006996
GO:0006164 GO:0006163 GO:0009165 GO:0072522
GO:0008582 GO:0048638 GO:0051963 GO:1904396
GO:0008340 GO:0044707
GO:0030030 GO:0016043 GO:0044763
GO:0009791 GO:0044707 GO:0044767
GO:0009314 GO:0009628
GO:0022402 GO:0044763
GO:0008104 GO:0033036
GO:0007015 GO:0071822
GO:0008103 GO:0007017 GO:0022412
GO:0051093 GO:0048519 GO:0050793
GO:0008344 GO:0007626 GO:0030534
GO:0007254 GO:0051403
GO:0007017 GO:0044763
GO:0030029 GO:0044763
GO:0008219 GO:0016265 GO:0044763
GO:0045892 GO:0006355 GO:0010629 GO:1903507 GO:2000113
GO:0045893 GO:0006355 GO:0010628 GO:1903508
GO:0043473 GO:0044699
GO:0034622 GO:0065003
GO:0001709 GO:0048869
GO:0065007 GO:0008150
GO:0065008 GO:0065007
GO:0065003 GO:0022607 GO:0043933
GO:0046622 GO:0046620 GO:0048639 GO:0051240
GO:0007267 GO:0007154 GO:0044700
GO:0008356 GO:0051301
GO:0043474 GO:0042440
GO:0007389 GO:0044707 GO:0044767
GO:0007268 GO:0007267
GO:0046620 GO:0048638 GO:0051239
GO:0008355 GO:0008306 GO:0042048
GO:0046621 GO:0046620 GO:0048640 GO:0051241
GO:0046626 GO:0009966 GO:1900076
GO:0046627 GO:0009968 GO:0046626 GO:1900077
GO:0065009 GO:0065007
GO:0031344 GO:0051128
GO:0034614 GO:0000302 GO:0034599 GO:1901701
GO:0030258 GO:0044255
GO:0019219 GO:0031323 GO:0051171 GO:0080090
GO:0009893 GO:0019222 GO:0048518
GO:0009892 GO:0019222 GO:0048519
GO:0009891 GO:0009889 GO:0009893
GO:0009890 GO:0009889 GO:0009892
GO:0048812 GO:0048858
GO:0007476 GO:0035114 GO:0035120
GO:0009653 GO:0032502
GO:0045664 GO:0050767
GO:0009894 GO:0019222
GO:0009416 GO:0009314
GO:0044699 GO:0008150
GO:0048813 GO:0048812
GO:0016070 GO:0044260 GO:0090304
GO:0009408 GO:0006950 GO:0009266
GO:0016192 GO:0006810
GO:0045793 GO:0008361
GO:0018130 GO:0044249 GO:0046483
GO:0045792 GO:0008361
GO:0019220 GO:0051174
GO:0016197 GO:1902582
GO:0019222 GO:0050789
GO:0010876 GO:0033036
GO:0010631 GO:0001667
GO:0071705 GO:0006810
GO:0007243 GO:0007165
GO:0042048 GO:0007635
GO:0022610 GO:0008150
GO:0031329 GO:0009894 GO:0031323
GO:0031327 GO:0009890 GO:0031324 GO:0031326
GO:0031328 GO:0009891 GO:0031325 GO:0031326
GO:0010648 GO:0010646 GO:0048523
GO:0010769 GO:0022604 GO:0060284
GO:0010647 GO:0010646 GO:0048522
GO:0001932 GO:0031399 GO:0042325
GO:0019693 GO:0006796 GO:0019637 GO:1901135
GO:0055114 GO:0044710
GO:0010646 GO:0050794
GO:0031325 GO:0009893 GO:0031323 GO:0048522
GO:0032535 GO:0016043 GO:0044763 GO:0090066
GO:0071704 GO:0008152
GO:0031326 GO:0009889 GO:0031323
GO:0071822 GO:0043933
GO:0031323 GO:0019222 GO:0050794
GO:0031324 GO:0009892 GO:0031323 GO:0048523
GO:0071702 GO:0006810
GO:0007292 GO:0007276
GO:0006082 GO:0044237 GO:0044281 GO:0044763 GO:0071704
GO:0007297 GO:0010631 GO:0022412
GO:0051172 GO:0009892 GO:0051171
GO:0051052 GO:0019219 GO:0060255
GO:0051173 GO:0009893 GO:0051171
GO:0007298 GO:0007297
GO:0051171 GO:0019222
GO:0042335 GO:0044767 GO:0048856
GO:0009117 GO:0006753
GO:0051049 GO:0032879
GO:0031399 GO:0032268
GO:0031396 GO:1903320
GO:0090304 GO:0006139 GO:0043170
GO:0008150
GO:0006091 GO:0044237
GO:0008152 GO:0008150
GO:0042221 GO:0050896
GO:0006099 GO:0006101 GO:0044238
GO:0044763 GO:0009987 GO:0044699
GO:0000302 GO:0006979 GO:1901700
GO:0044765 GO:0006810 GO:1902578
GO:0043434 GO:0009725 GO:1901652
GO:0043436 GO:0006082
GO:0044767 GO:0032502 GO:0044699
GO:0051179 GO:0008150
GO:0042592 GO:0065008
GO:0051174 GO:0031323
GO:0010468 GO:0060255
GO:0034654 GO:0006139 GO:0018130 GO:0019438 GO:0044271 GO:1901362
GO:0007391 GO:0016331
GO:0008360 GO:0022604 GO:0065008
GO:0007390 GO:0048598
GO:0007033 GO:0006996
GO:0007154 GO:0044763
GO:0008362 GO:0040003
GO:0008361 GO:0032535
GO:0042594 GO:0006950 GO:0031667
GO:0042595 GO:0042594
GO:0007034 GO:1902582
GO:0007276 GO:0044702 GO:0048609
GO:0007155 GO:0022610
GO:0043324 GO:0043474
GO:0010556 GO:0009889 GO:0060255
GO:0033554 GO:0006950 GO:0051716
GO:0010558 GO:0009890 GO:0010556 GO:0010605
GO:0032101 GO:0048583
GO:0034641 GO:0006807 GO:0044237
GO:0010557 GO:0009891 GO:0010556 GO:0010604
GO:0032107 GO:0032104
GO:0032104 GO:0032101
GO:0034645 GO:0009059 GO:0044249 GO:0044260
GO:0007281 GO:0003006 GO:0022412 GO:0044702 GO:0048468
GO:0007040 GO:0080171
GO:0007164 GO:0009653 GO:0044767
GO:0007165 GO:0050794
GO:0007041 GO:0007034
GO:0007283 GO:0048232
GO:0007163 GO:0044763
GO:0022414 GO:0008150
GO:0007169 GO:0007167
GO:0007166 GO:0007165
GO:0007167 GO:0007166
GO:0042127 GO:0050794
GO:0022412 GO:0044763
GO:0044550 GO:0019748 GO:0044711
GO:0001736 GO:0007164
GO:0030154 GO:0048869
GO:0090407 GO:0019637 GO:1901576
GO:0030036 GO:0007010 GO:0030029 GO:1902589
GO:0012501 GO:0008219
GO:0010562 GO:0031325 GO:0051174
GO:0010564 GO:0051726
GO:0035601 GO:0006464 GO:0098732
GO:0009152 GO:0006164 GO:0009150 GO:0009260
GO:0009150 GO:0006163 GO:0009259
GO:0048878 GO:0042592
GO:0080134 GO:0048583
GO:1901861 GO:0050793
GO:0080135 GO:0050794 GO:0080134
GO:0043067 GO:0010941
GO:0048513 GO:0048856
GO:0022008 GO:0030154
GO:0048634 GO:2000026
GO:0048512 GO:0007622 GO:0007623
GO:0043069 GO:0043067 GO:0060548
GO:1901987 GO:0010564
GO:0048519 GO:0050789
GO:0048518 GO:0050789
GO:0048638 GO:0040008 GO:0050793
GO:0044281 GO:0044710
GO:0044283 GO:0044281 GO:0044711
GO:0001666 GO:0006950 GO:0036293
GO:0048522 GO:0048518 GO:0050794
GO:0001667 GO:0016477
GO:0048641 GO:0016202
GO:0048640 GO:0045926 GO:0048638 GO:0051093
GO:0071417 GO:0010243 GO:0071310 GO:0071495 GO:1901699
GO:0050832 GO:0009620 GO:0098542
GO:0035556 GO:0007165
GO:0010033 GO:0042221
GO:1901990 GO:0007346 GO:1901987
GO:0009165 GO:0009117 GO:1901293
GO:0034220 GO:0006811 GO:0055085
GO:0048646 GO:0032502
GO:0090066 GO:0065008
GO:0048523 GO:0048519 GO:0050794
GO:0001558 GO:0040008 GO:0051128
GO:0043085 GO:0009893 GO:0044093 GO:0050790
GO:0008283 GO:0044699
GO:0032270 GO:0031325 GO:0032268 GO:0051247
GO:0008286 GO:0007169
GO:0008285 GO:0042127 GO:0048523
GO:0051707 GO:0043207 GO:0051704
GO:0009259 GO:0009117 GO:0019693
GO:0044057 GO:0051239
GO:0060548 GO:0010941 GO:0048523
GO:0046483 GO:0044237
GO:0046486 GO:0044255
GO:0071310 GO:0010033 GO:0070887
GO:0072521 GO:0006725 GO:0034641 GO:0046483 GO:1901360 GO:1901564
GO:0051705 GO:0007610 GO:0051704
GO:0032268 GO:0031323 GO:0051246
GO:0072522 GO:0018130 GO:0019438 GO:0044271 GO:0072521 GO:1901362 GO:1901566
GO:0051704 GO:0008150
GO:0032269 GO:0031324 GO:0032268 GO:0051248
GO:0009260 GO:0009165 GO:0009259 GO:0046390
GO:0055085 GO:0044763 GO:0044765
GO:0055086 GO:0006139 GO:0044281 GO:0044763
GO:0009266 GO:0009628
GO:0008055 GO:0044550 GO:0046148 GO:0046158
GO:0055088 GO:0048878
GO:1901653 GO:0071417 GO:1901652 GO:1901701
GO:1901652 GO:0010243 GO:1901700
GO:0046488 GO:0006650
GO:0009267 GO:0031669 GO:0033554 GO:0042594
GO:0008057 GO:0048753
GO:0048666 GO:0048468
GO:0001654 GO:0007423
GO:0048675 GO:1990138
GO:0051716 GO:0009987 GO:0050896
GO:0010243 GO:0009719 GO:0010033 GO:1901698
GO:0032259 GO:0008152
GO:0036211 GO:0019538 GO:0043412
GO:0015992 GO:0006818 GO:0015672
GO:0035120 GO:0009886 GO:0035107
GO:0044238 GO:0008152
GO:1901701 GO:0070887 GO:1901700
GO:0002682 GO:0050789
GO:0044237 GO:0008152 GO:0009987
GO:1901700 GO:0042221
GO:0042060 GO:0009611
GO:0006914 GO:0044248
GO:0033057 GO:0044705 GO:0044706 GO:0048609
GO:0035114 GO:0035107
GO:0070887 GO:0042221 GO:0051716
GO:0048609 GO:0022414
GO:0048729 GO:0009653 GO:0044767
GO:0050807 GO:0051128
GO:0050808 GO:0016043 GO:0044763
GO:0045454 GO:0019725 GO:0050794
GO:0044249 GO:0009058 GO:0044237
GO:0044248 GO:0009056 GO:0044237
GO:0006810 GO:0051234
GO:0048610
GO:0048731 GO:0048856
GO:0006928 GO:0044763
GO:0006807 GO:0008152
GO:0035107 GO:0009653 GO:0044767
GO:0050804 GO:0010646 GO:0023051
GO:0071840 GO:0008150
GO:0009056 GO:0008152
GO:0033043 GO:0051128
GO:0048856 GO:0032502
GO:0042078 GO:0017145 GO:0022412
GO:0044255 GO:0006629 GO:0044237 GO:0044763
GO:0009059 GO:0043170 GO:1901576
GO:0009058 GO:0008152
GO:0048858 GO:0030030 GO:0032990
GO:0000122 GO:0006357 GO:0045892
GO:0043170 GO:0071704
GO:0045471 GO:0097305
GO:0044260 GO:0043170 GO:0044237
GO:0048742 GO:0010830 GO:0048641 GO:0060284
GO:0045595 GO:0050793 GO:0050794
GO:0045596 GO:0045595 GO:0048523 GO:0051093
GO:0045475 GO:0007626 GO:0044708 GO:0048512
GO:0033036 GO:0051179
GO:0031099 GO:0044767 GO:0048856
GO:0010035 GO:0042221
GO:0031098 GO:0033554 GO:0035556
GO:0044267 GO:0019538 GO:0044260
GO:0048749 GO:0001654
GO:0048869 GO:0044763 GO:0044767
GO:1901615 GO:0071704
GO:0000003 GO:0008150
GO:0048870 GO:0006928 GO:0040011
GO:0044271 GO:0034641 GO:0044249
GO:0019098 GO:0007610 GO:0022414
GO:0048753 GO:0016050
GO:0048511 GO:0008150
GO:0043066 GO:0042981 GO:0043069
GO:0046331 GO:0045168
GO:0035206 GO:0002682 GO:0042127 GO:0050793 GO:0051239
GO:0006909 GO:0006897 GO:0044765
GO:0034599 GO:0006979 GO:0033554 GO:0070887
